<svg width="32" height="32" viewBox="0 0 32 32" fill="none" xmlns="http://www.w3.org/2000/svg">
<rect x="0.5" y="0.5" width="31" height="31" rx="7.5" stroke="#EFEFEF"/>
<path opacity="0.2" d="M15.6996 13.2778C16.0048 13.1054 16.378 13.1054 16.6832 13.2778L24.6131 17.757C24.9519 17.9484 24.9519 18.4364 24.6131 18.6277L16.6832 23.107C16.378 23.2794 16.0048 23.2794 15.6996 23.107L7.76974 18.6277C7.43096 18.4364 7.43095 17.9484 7.76974 17.757L15.6996 13.2778Z" fill="#262628"/>
<path opacity="0.5" d="M15.6996 10.2778C16.0048 10.1054 16.378 10.1054 16.6832 10.2778L24.6131 14.757C24.9519 14.9484 24.9519 15.4364 24.6131 15.6277L16.6832 20.107C16.378 20.2794 16.0048 20.2794 15.6996 20.107L7.76974 15.6277C7.43096 15.4364 7.43095 14.9484 7.76974 14.757L15.6996 10.2778Z" fill="#262628"/>
<path d="M15.6996 7.27781C16.0048 7.1054 16.378 7.1054 16.6832 7.27781L24.6131 11.757C24.9519 11.9484 24.9519 12.4364 24.6131 12.6277L16.6832 17.107C16.378 17.2794 16.0048 17.2794 15.6996 17.107L7.76974 12.6277C7.43096 12.4364 7.43095 11.9484 7.76974 11.757L15.6996 7.27781Z" fill="#262628"/>
</svg>
